TagInfoMgr                                          DEBUG initialize()
TagInfoMgr                                          DEBUG ExtraTagValuePairs 
TagInfoMgr                                          DEBUG Adding public ToolHandle tool ToolSvc.IOVDbMetaDataTool (IOVDbMetaDataTool)
TagInfoMgr                                          DEBUG addTag - adding name/value pairs: IOVDbGlobalTag OFLCOND-SDR-BS14T-IBL-06
TagInfoMgr                                          DEBUG addTag - adding name/value pairs: /LAR/Identifier/CalibIdMap LARIdentifierCalibIdMap-012
TagInfoMgr                                          DEBUG removeTagFromInput - adding tag name to be removed: /LAR/Identifier/CalibIdMap
TagInfoMgr                                          DEBUG addTag - adding name/value pairs: /LAR/Identifier/FebRodMap LARIdentifierFebRodMap-005
TagInfoMgr                                          DEBUG removeTagFromInput - adding tag name to be removed: /LAR/Identifier/FebRodMap
TagInfoMgr                                          DEBUG addTag - adding name/value pairs: /LAR/Identifier/OnOffIdMap LARIdentifierOnOffIdMap-012
TagInfoMgr                                          DEBUG removeTagFromInput - adding tag name to be removed: /LAR/Identifier/OnOffIdMap
TagInfoMgr                                          DEBUG removeTagFromInput - adding tag name to be removed: /TILE/OFL02/CALIB/CES
TagInfoMgr                                          DEBUG removeTagFromInput - adding tag name to be removed: /TILE/OFL02/CALIB/CIS/FIT/LIN
TagInfoMgr                                          DEBUG removeTagFromInput - adding tag name to be removed: /TILE/OFL02/CALIB/CIS/FIT/NLN
TagInfoMgr                                          DEBUG removeTagFromInput - adding tag name to be removed: /TILE/OFL02/CALIB/EMS
TagInfoMgr                                          DEBUG removeTagFromInput - adding tag name to be removed: /TILE/OFL02/CALIB/LAS/FIBER
TagInfoMgr                                          DEBUG removeTagFromInput - adding tag name to be removed: /TILE/OFL02/CALIB/LAS/LIN
TagInfoMgr                                          DEBUG removeTagFromInput - adding tag name to be removed: /TILE/OFL02/CALIB/LAS/NLN
TagInfoMgr                                          DEBUG removeTagFromInput - adding tag name to be removed: /TagInfo
EventInfoWriter                                     DEBUG EventInfoWriter::initialize()
EventInfoWriter                                     DEBUG CreateDummyTags          'CreateDummyTags':True
EventInfoWriter                                     DEBUG RemoveDummyTags          'RemoveDummyTags':False
EventInfoWriter                                     DEBUG CreateDummyOverrideTags  'CreateDummyOverrideTags':False
EventInfoWriter                                     DEBUG Added tag to TagInfoMgr
EventInfoWriter                                     DEBUG EventInfoWriter::fillTagInfo()
EventInfoWriter                                     DEBUG Create dummy tags, A1-D1
TagInfoMgr                                          DEBUG addTag - adding name/value pairs: TagA1 A1
TagInfoMgr                                          DEBUG addTag - adding name/value pairs: TagB1 B1
TagInfoMgr                                          DEBUG addTag - adding name/value pairs: TagC1 C1
TagInfoMgr                                          DEBUG addTag - adding name/value pairs: TagD1 D1
EventInfoWriter                                     DEBUG Called fillTagInfo
TagInfoMgr                                          DEBUG start()
TagInfoMgr                                          DEBUG handle: received incident of type BeginInputFile from EventSelector
TagInfoMgr                                          DEBUG handle: received incident of type BeginRun from AthenaEventLoopMgr
TagInfoMgr                                          DEBUG handle: BeginRun incident - Event ID: [1,1:0] 
TagInfoMgr                                          DEBUG handle: conditionsRun = 1
TagInfoMgr                                          DEBUG handle: currentRun = 1
TagInfoMgr                                          DEBUG Signaled begin run to IOVDbSvc [1,1:0]
TagInfoMgr                                          DEBUG updateTagInfo: getting /TagInfo
TagInfoMgr                                          DEBUG updateTagInfo: Retrieved TagInfo meta data from detStore. size 1
TagInfoMgr                                          DEBUG fillTagInfo: 
TagInfoMgr                                          DEBUG fillTagInfo: - reading Tags from infile IOV metadata
TagInfoMgr                                          DEBUG fillTagInfo: Did NOT add tag - on remove list: name/tag: /LAR/Identifier/CalibIdMap LARIdentifierCalibIdMap-012
TagInfoMgr                                          DEBUG fillTagInfo: Added value/tag to TagInfo as input tag /LAR/Identifier/CalibIdMap LARIdentifierCalibIdMap-012
TagInfoMgr                                          DEBUG fillTagInfo: Did NOT add tag - on remove list: name/tag: /LAR/Identifier/FebRodMap LARIdentifierFebRodMap-005
TagInfoMgr                                          DEBUG fillTagInfo: Added value/tag to TagInfo as input tag /LAR/Identifier/FebRodMap LARIdentifierFebRodMap-005
TagInfoMgr                                          DEBUG fillTagInfo: Did NOT add tag - on remove list: name/tag: /LAR/Identifier/OnOffIdMap LARIdentifierOnOffIdMap-012
TagInfoMgr                                          DEBUG fillTagInfo: Added value/tag to TagInfo as input tag /LAR/Identifier/OnOffIdMap LARIdentifierOnOffIdMap-012
TagInfoMgr                                          DEBUG fillTagInfo: Added name/tag to TagInfo IOVDbGlobalTag OFLCOND-SDR-BS14T-IBL-06
TagInfoMgr                                          DEBUG fillTagInfo: Added value/tag to TagInfo as input tag IOVDbGlobalTag OFLCOND-SDR-BS14T-IBL-06
TagInfoMgr                                          DEBUG fillTagInfo: print out tags before adding extra tags
TagInfoMgr                                          DEBUG TagInfo tag: 
TagInfoMgr                                          DEBUG fillTagInfo: Adding extra value/tag pair: /LAR/Identifier/CalibIdMap LARIdentifierCalibIdMap-012
TagInfoMgr                                          DEBUG fillTagInfo: Adding extra value/tag pair: /LAR/Identifier/FebRodMap LARIdentifierFebRodMap-005
TagInfoMgr                                          DEBUG fillTagInfo: Adding extra value/tag pair: /LAR/Identifier/OnOffIdMap LARIdentifierOnOffIdMap-012
TagInfoMgr                                          DEBUG fillTagInfo: Adding extra value/tag pair: IOVDbGlobalTag OFLCOND-SDR-BS14T-IBL-06
TagInfoMgr                                          DEBUG fillTagInfo: Adding extra value/tag pair: TagA1 A1
TagInfoMgr                                          DEBUG fillTagInfo: Adding extra value/tag pair: TagB1 B1
TagInfoMgr                                          DEBUG fillTagInfo: Adding extra value/tag pair: TagC1 C1
TagInfoMgr                                          DEBUG fillTagInfo: Adding extra value/tag pair: TagD1 D1
TagInfoMgr                                          DEBUG fillTagInfo: print out tags
TagInfoMgr                                          DEBUG TagInfo tag: 
TagInfoMgr                                          DEBUG updateTagInfo: Filled TagInfo from file meta data 
TagInfoMgr                                          DEBUG entering fillMetaData
TagInfoMgr                                          DEBUG fillMetaData: Adding value/tag pairs to file meta data: 
TagInfoMgr                                          DEBUG /LAR/Identifier/CalibIdMap LARIdentifierCalibIdMap-012
TagInfoMgr                                          DEBUG /LAR/Identifier/FebRodMap LARIdentifierFebRodMap-005
TagInfoMgr                                          DEBUG /LAR/Identifier/OnOffIdMap LARIdentifierOnOffIdMap-012
TagInfoMgr                                          DEBUG IOVDbGlobalTag OFLCOND-SDR-BS14T-IBL-06
TagInfoMgr                                          DEBUG TagA1 A1
TagInfoMgr                                          DEBUG TagB1 B1
TagInfoMgr                                          DEBUG TagC1 C1
TagInfoMgr                                          DEBUG TagD1 D1
TagInfoMgr                                          DEBUG IOV minRange from IOVMetaData: {[1,0] - [3,0]}
TagInfoMgr                                          DEBUG fillMetaData: run number is in previous IOVRange: 1 {[1,0] - [3,0]}
TagInfoMgr                                          DEBUG fillMetaData: start, stop: [1,0] [3,0]
TagInfoMgr                                          DEBUG updateTagInfo: Wrote TagInfo to MetaDataStore 
TagInfoMgr                                          DEBUG handle: TagInfo successfully processed by IOVDbSvc to register callback
TagInfoMgr                                          DEBUG notifyListeners  (1 registered)
EventInfoWriter                                     DEBUG EventInfoWriter::execute()
EventInfoWriter                                     DEBUG Event ID: [1,4294967296:0] 
EventInfoWriter                                     DEBUG Tags from TagInfoMgr:
EventInfoWriter                                     DEBUG TagInfo tag: 
EventInfoWriter                                     DEBUG Current tags: 
EventInfoWriter                                     DEBUG     /LAR/Identifier/CalibIdMap LARIdentifierCalibIdMap-012
EventInfoWriter                                     DEBUG     /LAR/Identifier/FebRodMap LARIdentifierFebRodMap-005
EventInfoWriter                                     DEBUG     /LAR/Identifier/OnOffIdMap LARIdentifierOnOffIdMap-012
EventInfoWriter                                     DEBUG     IOVDbGlobalTag OFLCOND-SDR-BS14T-IBL-06
EventInfoWriter                                     DEBUG     TagA1 A1
EventInfoWriter                                     DEBUG     TagB1 B1
EventInfoWriter                                     DEBUG     TagC1 C1
EventInfoWriter                                     DEBUG     TagD1 D1
EventInfoWriter                                     DEBUG Input tags: 
EventInfoWriter                                     DEBUG     /LAR/Identifier/CalibIdMap LARIdentifierCalibIdMap-012
EventInfoWriter                                     DEBUG     /LAR/Identifier/FebRodMap LARIdentifierFebRodMap-005
EventInfoWriter                                     DEBUG     /LAR/Identifier/OnOffIdMap LARIdentifierOnOffIdMap-012
EventInfoWriter                                     DEBUG     IOVDbGlobalTag OFLCOND-SDR-BS14T-IBL-06
EventInfoWriter                                     DEBUG EventInfoWriter::execute()
EventInfoWriter                                     DEBUG Event ID: [1,4294967297:5] 
EventInfoWriter                                     DEBUG Tags from TagInfoMgr:
EventInfoWriter                                     DEBUG TagInfo tag: 
EventInfoWriter                                     DEBUG Current tags: 
EventInfoWriter                                     DEBUG     /LAR/Identifier/CalibIdMap LARIdentifierCalibIdMap-012
EventInfoWriter                                     DEBUG     /LAR/Identifier/FebRodMap LARIdentifierFebRodMap-005
EventInfoWriter                                     DEBUG     /LAR/Identifier/OnOffIdMap LARIdentifierOnOffIdMap-012
EventInfoWriter                                     DEBUG     IOVDbGlobalTag OFLCOND-SDR-BS14T-IBL-06
EventInfoWriter                                     DEBUG     TagA1 A1
EventInfoWriter                                     DEBUG     TagB1 B1
EventInfoWriter                                     DEBUG     TagC1 C1
EventInfoWriter                                     DEBUG     TagD1 D1
EventInfoWriter                                     DEBUG Input tags: 
EventInfoWriter                                     DEBUG     /LAR/Identifier/CalibIdMap LARIdentifierCalibIdMap-012
EventInfoWriter                                     DEBUG     /LAR/Identifier/FebRodMap LARIdentifierFebRodMap-005
EventInfoWriter                                     DEBUG     /LAR/Identifier/OnOffIdMap LARIdentifierOnOffIdMap-012
EventInfoWriter                                     DEBUG     IOVDbGlobalTag OFLCOND-SDR-BS14T-IBL-06
EventInfoWriter                                     DEBUG EventInfoWriter::execute()
EventInfoWriter                                     DEBUG Event ID: [1,4294967298:10] 
EventInfoWriter                                     DEBUG Tags from TagInfoMgr:
EventInfoWriter                                     DEBUG TagInfo tag: 
EventInfoWriter                                     DEBUG Current tags: 
EventInfoWriter                                     DEBUG     /LAR/Identifier/CalibIdMap LARIdentifierCalibIdMap-012
EventInfoWriter                                     DEBUG     /LAR/Identifier/FebRodMap LARIdentifierFebRodMap-005
EventInfoWriter                                     DEBUG     /LAR/Identifier/OnOffIdMap LARIdentifierOnOffIdMap-012
EventInfoWriter                                     DEBUG     IOVDbGlobalTag OFLCOND-SDR-BS14T-IBL-06
EventInfoWriter                                     DEBUG     TagA1 A1
EventInfoWriter                                     DEBUG     TagB1 B1
EventInfoWriter                                     DEBUG     TagC1 C1
EventInfoWriter                                     DEBUG     TagD1 D1
EventInfoWriter                                     DEBUG Input tags: 
EventInfoWriter                                     DEBUG     /LAR/Identifier/CalibIdMap LARIdentifierCalibIdMap-012
EventInfoWriter                                     DEBUG     /LAR/Identifier/FebRodMap LARIdentifierFebRodMap-005
EventInfoWriter                                     DEBUG     /LAR/Identifier/OnOffIdMap LARIdentifierOnOffIdMap-012
EventInfoWriter                                     DEBUG     IOVDbGlobalTag OFLCOND-SDR-BS14T-IBL-06
EventInfoWriter                                     DEBUG EventInfoWriter::execute()
EventInfoWriter                                     DEBUG Event ID: [1,4294967299:15] 
EventInfoWriter                                     DEBUG Tags from TagInfoMgr:
EventInfoWriter                                     DEBUG TagInfo tag: 
EventInfoWriter                                     DEBUG Current tags: 
EventInfoWriter                                     DEBUG     /LAR/Identifier/CalibIdMap LARIdentifierCalibIdMap-012
EventInfoWriter                                     DEBUG     /LAR/Identifier/FebRodMap LARIdentifierFebRodMap-005
EventInfoWriter                                     DEBUG     /LAR/Identifier/OnOffIdMap LARIdentifierOnOffIdMap-012
EventInfoWriter                                     DEBUG     IOVDbGlobalTag OFLCOND-SDR-BS14T-IBL-06
EventInfoWriter                                     DEBUG     TagA1 A1
EventInfoWriter                                     DEBUG     TagB1 B1
EventInfoWriter                                     DEBUG     TagC1 C1
EventInfoWriter                                     DEBUG     TagD1 D1
EventInfoWriter                                     DEBUG Input tags: 
EventInfoWriter                                     DEBUG     /LAR/Identifier/CalibIdMap LARIdentifierCalibIdMap-012
EventInfoWriter                                     DEBUG     /LAR/Identifier/FebRodMap LARIdentifierFebRodMap-005
EventInfoWriter                                     DEBUG     /LAR/Identifier/OnOffIdMap LARIdentifierOnOffIdMap-012
EventInfoWriter                                     DEBUG     IOVDbGlobalTag OFLCOND-SDR-BS14T-IBL-06
EventInfoWriter                                     DEBUG EventInfoWriter::execute()
EventInfoWriter                                     DEBUG Event ID: [1,4294967300:20] 
EventInfoWriter                                     DEBUG Tags from TagInfoMgr:
EventInfoWriter                                     DEBUG TagInfo tag: 
EventInfoWriter                                     DEBUG Current tags: 
EventInfoWriter                                     DEBUG     /LAR/Identifier/CalibIdMap LARIdentifierCalibIdMap-012
EventInfoWriter                                     DEBUG     /LAR/Identifier/FebRodMap LARIdentifierFebRodMap-005
EventInfoWriter                                     DEBUG     /LAR/Identifier/OnOffIdMap LARIdentifierOnOffIdMap-012
EventInfoWriter                                     DEBUG     IOVDbGlobalTag OFLCOND-SDR-BS14T-IBL-06
EventInfoWriter                                     DEBUG     TagA1 A1
EventInfoWriter                                     DEBUG     TagB1 B1
EventInfoWriter                                     DEBUG     TagC1 C1
EventInfoWriter                                     DEBUG     TagD1 D1
EventInfoWriter                                     DEBUG Input tags: 
EventInfoWriter                                     DEBUG     /LAR/Identifier/CalibIdMap LARIdentifierCalibIdMap-012
EventInfoWriter                                     DEBUG     /LAR/Identifier/FebRodMap LARIdentifierFebRodMap-005
EventInfoWriter                                     DEBUG     /LAR/Identifier/OnOffIdMap LARIdentifierOnOffIdMap-012
EventInfoWriter                                     DEBUG     IOVDbGlobalTag OFLCOND-SDR-BS14T-IBL-06
EventInfoWriter                                     DEBUG EventInfoWriter::execute()
EventInfoWriter                                     DEBUG Event ID: [1,4294967301:25] 
EventInfoWriter                                     DEBUG Tags from TagInfoMgr:
EventInfoWriter                                     DEBUG TagInfo tag: 
EventInfoWriter                                     DEBUG Current tags: 
EventInfoWriter                                     DEBUG     /LAR/Identifier/CalibIdMap LARIdentifierCalibIdMap-012
EventInfoWriter                                     DEBUG     /LAR/Identifier/FebRodMap LARIdentifierFebRodMap-005
EventInfoWriter                                     DEBUG     /LAR/Identifier/OnOffIdMap LARIdentifierOnOffIdMap-012
EventInfoWriter                                     DEBUG     IOVDbGlobalTag OFLCOND-SDR-BS14T-IBL-06
EventInfoWriter                                     DEBUG     TagA1 A1
EventInfoWriter                                     DEBUG     TagB1 B1
EventInfoWriter                                     DEBUG     TagC1 C1
EventInfoWriter                                     DEBUG     TagD1 D1
EventInfoWriter                                     DEBUG Input tags: 
EventInfoWriter                                     DEBUG     /LAR/Identifier/CalibIdMap LARIdentifierCalibIdMap-012
EventInfoWriter                                     DEBUG     /LAR/Identifier/FebRodMap LARIdentifierFebRodMap-005
EventInfoWriter                                     DEBUG     /LAR/Identifier/OnOffIdMap LARIdentifierOnOffIdMap-012
EventInfoWriter                                     DEBUG     IOVDbGlobalTag OFLCOND-SDR-BS14T-IBL-06
EventInfoWriter                                     DEBUG EventInfoWriter::execute()
EventInfoWriter                                     DEBUG Event ID: [1,4294967302:30] 
EventInfoWriter                                     DEBUG Tags from TagInfoMgr:
EventInfoWriter                                     DEBUG TagInfo tag: 
EventInfoWriter                                     DEBUG Current tags: 
EventInfoWriter                                     DEBUG     /LAR/Identifier/CalibIdMap LARIdentifierCalibIdMap-012
EventInfoWriter                                     DEBUG     /LAR/Identifier/FebRodMap LARIdentifierFebRodMap-005
EventInfoWriter                                     DEBUG     /LAR/Identifier/OnOffIdMap LARIdentifierOnOffIdMap-012
EventInfoWriter                                     DEBUG     IOVDbGlobalTag OFLCOND-SDR-BS14T-IBL-06
EventInfoWriter                                     DEBUG     TagA1 A1
EventInfoWriter                                     DEBUG     TagB1 B1
EventInfoWriter                                     DEBUG     TagC1 C1
EventInfoWriter                                     DEBUG     TagD1 D1
EventInfoWriter                                     DEBUG Input tags: 
EventInfoWriter                                     DEBUG     /LAR/Identifier/CalibIdMap LARIdentifierCalibIdMap-012
EventInfoWriter                                     DEBUG     /LAR/Identifier/FebRodMap LARIdentifierFebRodMap-005
EventInfoWriter                                     DEBUG     /LAR/Identifier/OnOffIdMap LARIdentifierOnOffIdMap-012
EventInfoWriter                                     DEBUG     IOVDbGlobalTag OFLCOND-SDR-BS14T-IBL-06
EventInfoWriter                                     DEBUG EventInfoWriter::execute()
EventInfoWriter                                     DEBUG Event ID: [1,4294967303:35] 
EventInfoWriter                                     DEBUG Tags from TagInfoMgr:
EventInfoWriter                                     DEBUG TagInfo tag: 
EventInfoWriter                                     DEBUG Current tags: 
EventInfoWriter                                     DEBUG     /LAR/Identifier/CalibIdMap LARIdentifierCalibIdMap-012
EventInfoWriter                                     DEBUG     /LAR/Identifier/FebRodMap LARIdentifierFebRodMap-005
EventInfoWriter                                     DEBUG     /LAR/Identifier/OnOffIdMap LARIdentifierOnOffIdMap-012
EventInfoWriter                                     DEBUG     IOVDbGlobalTag OFLCOND-SDR-BS14T-IBL-06
EventInfoWriter                                     DEBUG     TagA1 A1
EventInfoWriter                                     DEBUG     TagB1 B1
EventInfoWriter                                     DEBUG     TagC1 C1
EventInfoWriter                                     DEBUG     TagD1 D1
EventInfoWriter                                     DEBUG Input tags: 
EventInfoWriter                                     DEBUG     /LAR/Identifier/CalibIdMap LARIdentifierCalibIdMap-012
EventInfoWriter                                     DEBUG     /LAR/Identifier/FebRodMap LARIdentifierFebRodMap-005
EventInfoWriter                                     DEBUG     /LAR/Identifier/OnOffIdMap LARIdentifierOnOffIdMap-012
EventInfoWriter                                     DEBUG     IOVDbGlobalTag OFLCOND-SDR-BS14T-IBL-06
EventInfoWriter                                     DEBUG EventInfoWriter::execute()
EventInfoWriter                                     DEBUG Event ID: [1,4294967304:40] 
EventInfoWriter                                     DEBUG Tags from TagInfoMgr:
EventInfoWriter                                     DEBUG TagInfo tag: 
EventInfoWriter                                     DEBUG Current tags: 
EventInfoWriter                                     DEBUG     /LAR/Identifier/CalibIdMap LARIdentifierCalibIdMap-012
EventInfoWriter                                     DEBUG     /LAR/Identifier/FebRodMap LARIdentifierFebRodMap-005
EventInfoWriter                                     DEBUG     /LAR/Identifier/OnOffIdMap LARIdentifierOnOffIdMap-012
EventInfoWriter                                     DEBUG     IOVDbGlobalTag OFLCOND-SDR-BS14T-IBL-06
EventInfoWriter                                     DEBUG     TagA1 A1
EventInfoWriter                                     DEBUG     TagB1 B1
EventInfoWriter                                     DEBUG     TagC1 C1
EventInfoWriter                                     DEBUG     TagD1 D1
EventInfoWriter                                     DEBUG Input tags: 
EventInfoWriter                                     DEBUG     /LAR/Identifier/CalibIdMap LARIdentifierCalibIdMap-012
EventInfoWriter                                     DEBUG     /LAR/Identifier/FebRodMap LARIdentifierFebRodMap-005
EventInfoWriter                                     DEBUG     /LAR/Identifier/OnOffIdMap LARIdentifierOnOffIdMap-012
EventInfoWriter                                     DEBUG     IOVDbGlobalTag OFLCOND-SDR-BS14T-IBL-06
EventInfoWriter                                     DEBUG EventInfoWriter::execute()
EventInfoWriter                                     DEBUG Event ID: [1,4294967305:45] 
EventInfoWriter                                     DEBUG Tags from TagInfoMgr:
EventInfoWriter                                     DEBUG TagInfo tag: 
EventInfoWriter                                     DEBUG Current tags: 
EventInfoWriter                                     DEBUG     /LAR/Identifier/CalibIdMap LARIdentifierCalibIdMap-012
EventInfoWriter                                     DEBUG     /LAR/Identifier/FebRodMap LARIdentifierFebRodMap-005
EventInfoWriter                                     DEBUG     /LAR/Identifier/OnOffIdMap LARIdentifierOnOffIdMap-012
EventInfoWriter                                     DEBUG     IOVDbGlobalTag OFLCOND-SDR-BS14T-IBL-06
EventInfoWriter                                     DEBUG     TagA1 A1
EventInfoWriter                                     DEBUG     TagB1 B1
EventInfoWriter                                     DEBUG     TagC1 C1
EventInfoWriter                                     DEBUG     TagD1 D1
EventInfoWriter                                     DEBUG Input tags: 
EventInfoWriter                                     DEBUG     /LAR/Identifier/CalibIdMap LARIdentifierCalibIdMap-012
EventInfoWriter                                     DEBUG     /LAR/Identifier/FebRodMap LARIdentifierFebRodMap-005
EventInfoWriter                                     DEBUG     /LAR/Identifier/OnOffIdMap LARIdentifierOnOffIdMap-012
EventInfoWriter                                     DEBUG     IOVDbGlobalTag OFLCOND-SDR-BS14T-IBL-06
EventInfoWriter                                     DEBUG EventInfoWriter::execute()
EventInfoWriter                                     DEBUG Event ID: [1,4294967306:50] 
EventInfoWriter                                     DEBUG Tags from TagInfoMgr:
EventInfoWriter                                     DEBUG TagInfo tag: 
EventInfoWriter                                     DEBUG Current tags: 
EventInfoWriter                                     DEBUG     /LAR/Identifier/CalibIdMap LARIdentifierCalibIdMap-012
EventInfoWriter                                     DEBUG     /LAR/Identifier/FebRodMap LARIdentifierFebRodMap-005
EventInfoWriter                                     DEBUG     /LAR/Identifier/OnOffIdMap LARIdentifierOnOffIdMap-012
EventInfoWriter                                     DEBUG     IOVDbGlobalTag OFLCOND-SDR-BS14T-IBL-06
EventInfoWriter                                     DEBUG     TagA1 A1
EventInfoWriter                                     DEBUG     TagB1 B1
EventInfoWriter                                     DEBUG     TagC1 C1
EventInfoWriter                                     DEBUG     TagD1 D1
EventInfoWriter                                     DEBUG Input tags: 
EventInfoWriter                                     DEBUG     /LAR/Identifier/CalibIdMap LARIdentifierCalibIdMap-012
EventInfoWriter                                     DEBUG     /LAR/Identifier/FebRodMap LARIdentifierFebRodMap-005
EventInfoWriter                                     DEBUG     /LAR/Identifier/OnOffIdMap LARIdentifierOnOffIdMap-012
EventInfoWriter                                     DEBUG     IOVDbGlobalTag OFLCOND-SDR-BS14T-IBL-06
EventInfoWriter                                     DEBUG EventInfoWriter::execute()
EventInfoWriter                                     DEBUG Event ID: [1,4294967307:55] 
EventInfoWriter                                     DEBUG Tags from TagInfoMgr:
EventInfoWriter                                     DEBUG TagInfo tag: 
EventInfoWriter                                     DEBUG Current tags: 
EventInfoWriter                                     DEBUG     /LAR/Identifier/CalibIdMap LARIdentifierCalibIdMap-012
EventInfoWriter                                     DEBUG     /LAR/Identifier/FebRodMap LARIdentifierFebRodMap-005
EventInfoWriter                                     DEBUG     /LAR/Identifier/OnOffIdMap LARIdentifierOnOffIdMap-012
EventInfoWriter                                     DEBUG     IOVDbGlobalTag OFLCOND-SDR-BS14T-IBL-06
EventInfoWriter                                     DEBUG     TagA1 A1
EventInfoWriter                                     DEBUG     TagB1 B1
EventInfoWriter                                     DEBUG     TagC1 C1
EventInfoWriter                                     DEBUG     TagD1 D1
EventInfoWriter                                     DEBUG Input tags: 
EventInfoWriter                                     DEBUG     /LAR/Identifier/CalibIdMap LARIdentifierCalibIdMap-012
EventInfoWriter                                     DEBUG     /LAR/Identifier/FebRodMap LARIdentifierFebRodMap-005
EventInfoWriter                                     DEBUG     /LAR/Identifier/OnOffIdMap LARIdentifierOnOffIdMap-012
EventInfoWriter                                     DEBUG     IOVDbGlobalTag OFLCOND-SDR-BS14T-IBL-06
EventInfoWriter                                     DEBUG EventInfoWriter::execute()
EventInfoWriter                                     DEBUG Event ID: [1,4294967308:60] 
EventInfoWriter                                     DEBUG Tags from TagInfoMgr:
EventInfoWriter                                     DEBUG TagInfo tag: 
EventInfoWriter                                     DEBUG Current tags: 
EventInfoWriter                                     DEBUG     /LAR/Identifier/CalibIdMap LARIdentifierCalibIdMap-012
EventInfoWriter                                     DEBUG     /LAR/Identifier/FebRodMap LARIdentifierFebRodMap-005
EventInfoWriter                                     DEBUG     /LAR/Identifier/OnOffIdMap LARIdentifierOnOffIdMap-012
EventInfoWriter                                     DEBUG     IOVDbGlobalTag OFLCOND-SDR-BS14T-IBL-06
EventInfoWriter                                     DEBUG     TagA1 A1
EventInfoWriter                                     DEBUG     TagB1 B1
EventInfoWriter                                     DEBUG     TagC1 C1
EventInfoWriter                                     DEBUG     TagD1 D1
EventInfoWriter                                     DEBUG Input tags: 
EventInfoWriter                                     DEBUG     /LAR/Identifier/CalibIdMap LARIdentifierCalibIdMap-012
EventInfoWriter                                     DEBUG     /LAR/Identifier/FebRodMap LARIdentifierFebRodMap-005
EventInfoWriter                                     DEBUG     /LAR/Identifier/OnOffIdMap LARIdentifierOnOffIdMap-012
EventInfoWriter                                     DEBUG     IOVDbGlobalTag OFLCOND-SDR-BS14T-IBL-06
EventInfoWriter                                     DEBUG EventInfoWriter::execute()
EventInfoWriter                                     DEBUG Event ID: [1,4294967309:65] 
EventInfoWriter                                     DEBUG Tags from TagInfoMgr:
EventInfoWriter                                     DEBUG TagInfo tag: 
EventInfoWriter                                     DEBUG Current tags: 
EventInfoWriter                                     DEBUG     /LAR/Identifier/CalibIdMap LARIdentifierCalibIdMap-012
EventInfoWriter                                     DEBUG     /LAR/Identifier/FebRodMap LARIdentifierFebRodMap-005
EventInfoWriter                                     DEBUG     /LAR/Identifier/OnOffIdMap LARIdentifierOnOffIdMap-012
EventInfoWriter                                     DEBUG     IOVDbGlobalTag OFLCOND-SDR-BS14T-IBL-06
EventInfoWriter                                     DEBUG     TagA1 A1
EventInfoWriter                                     DEBUG     TagB1 B1
EventInfoWriter                                     DEBUG     TagC1 C1
EventInfoWriter                                     DEBUG     TagD1 D1
EventInfoWriter                                     DEBUG Input tags: 
EventInfoWriter                                     DEBUG     /LAR/Identifier/CalibIdMap LARIdentifierCalibIdMap-012
EventInfoWriter                                     DEBUG     /LAR/Identifier/FebRodMap LARIdentifierFebRodMap-005
EventInfoWriter                                     DEBUG     /LAR/Identifier/OnOffIdMap LARIdentifierOnOffIdMap-012
EventInfoWriter                                     DEBUG     IOVDbGlobalTag OFLCOND-SDR-BS14T-IBL-06
EventInfoWriter                                     DEBUG EventInfoWriter::execute()
EventInfoWriter                                     DEBUG Event ID: [1,4294967310:70] 
EventInfoWriter                                     DEBUG Tags from TagInfoMgr:
EventInfoWriter                                     DEBUG TagInfo tag: 
EventInfoWriter                                     DEBUG Current tags: 
EventInfoWriter                                     DEBUG     /LAR/Identifier/CalibIdMap LARIdentifierCalibIdMap-012
EventInfoWriter                                     DEBUG     /LAR/Identifier/FebRodMap LARIdentifierFebRodMap-005
EventInfoWriter                                     DEBUG     /LAR/Identifier/OnOffIdMap LARIdentifierOnOffIdMap-012
EventInfoWriter                                     DEBUG     IOVDbGlobalTag OFLCOND-SDR-BS14T-IBL-06
EventInfoWriter                                     DEBUG     TagA1 A1
EventInfoWriter                                     DEBUG     TagB1 B1
EventInfoWriter                                     DEBUG     TagC1 C1
EventInfoWriter                                     DEBUG     TagD1 D1
EventInfoWriter                                     DEBUG Input tags: 
EventInfoWriter                                     DEBUG     /LAR/Identifier/CalibIdMap LARIdentifierCalibIdMap-012
EventInfoWriter                                     DEBUG     /LAR/Identifier/FebRodMap LARIdentifierFebRodMap-005
EventInfoWriter                                     DEBUG     /LAR/Identifier/OnOffIdMap LARIdentifierOnOffIdMap-012
EventInfoWriter                                     DEBUG     IOVDbGlobalTag OFLCOND-SDR-BS14T-IBL-06
EventInfoWriter                                     DEBUG EventInfoWriter::execute()
EventInfoWriter                                     DEBUG Event ID: [1,4294967311:75] 
EventInfoWriter                                     DEBUG Tags from TagInfoMgr:
EventInfoWriter                                     DEBUG TagInfo tag: 
EventInfoWriter                                     DEBUG Current tags: 
EventInfoWriter                                     DEBUG     /LAR/Identifier/CalibIdMap LARIdentifierCalibIdMap-012
EventInfoWriter                                     DEBUG     /LAR/Identifier/FebRodMap LARIdentifierFebRodMap-005
EventInfoWriter                                     DEBUG     /LAR/Identifier/OnOffIdMap LARIdentifierOnOffIdMap-012
EventInfoWriter                                     DEBUG     IOVDbGlobalTag OFLCOND-SDR-BS14T-IBL-06
EventInfoWriter                                     DEBUG     TagA1 A1
EventInfoWriter                                     DEBUG     TagB1 B1
EventInfoWriter                                     DEBUG     TagC1 C1
EventInfoWriter                                     DEBUG     TagD1 D1
EventInfoWriter                                     DEBUG Input tags: 
EventInfoWriter                                     DEBUG     /LAR/Identifier/CalibIdMap LARIdentifierCalibIdMap-012
EventInfoWriter                                     DEBUG     /LAR/Identifier/FebRodMap LARIdentifierFebRodMap-005
EventInfoWriter                                     DEBUG     /LAR/Identifier/OnOffIdMap LARIdentifierOnOffIdMap-012
EventInfoWriter                                     DEBUG     IOVDbGlobalTag OFLCOND-SDR-BS14T-IBL-06
EventInfoWriter                                     DEBUG EventInfoWriter::execute()
EventInfoWriter                                     DEBUG Event ID: [1,4294967312:80] 
EventInfoWriter                                     DEBUG Tags from TagInfoMgr:
EventInfoWriter                                     DEBUG TagInfo tag: 
EventInfoWriter                                     DEBUG Current tags: 
EventInfoWriter                                     DEBUG     /LAR/Identifier/CalibIdMap LARIdentifierCalibIdMap-012
EventInfoWriter                                     DEBUG     /LAR/Identifier/FebRodMap LARIdentifierFebRodMap-005
EventInfoWriter                                     DEBUG     /LAR/Identifier/OnOffIdMap LARIdentifierOnOffIdMap-012
EventInfoWriter                                     DEBUG     IOVDbGlobalTag OFLCOND-SDR-BS14T-IBL-06
EventInfoWriter                                     DEBUG     TagA1 A1
EventInfoWriter                                     DEBUG     TagB1 B1
EventInfoWriter                                     DEBUG     TagC1 C1
EventInfoWriter                                     DEBUG     TagD1 D1
EventInfoWriter                                     DEBUG Input tags: 
EventInfoWriter                                     DEBUG     /LAR/Identifier/CalibIdMap LARIdentifierCalibIdMap-012
EventInfoWriter                                     DEBUG     /LAR/Identifier/FebRodMap LARIdentifierFebRodMap-005
EventInfoWriter                                     DEBUG     /LAR/Identifier/OnOffIdMap LARIdentifierOnOffIdMap-012
EventInfoWriter                                     DEBUG     IOVDbGlobalTag OFLCOND-SDR-BS14T-IBL-06
TagInfoMgr                                          DEBUG handle: received incident of type BeginRun from AthenaEventLoopMgr
TagInfoMgr                                          DEBUG handle: BeginRun incident - Event ID: [2,1:85] 
TagInfoMgr                                          DEBUG handle: conditionsRun = 2
TagInfoMgr                                          DEBUG handle: currentRun = 2
TagInfoMgr                                          DEBUG updateTagInfo: getting /TagInfo
TagInfoMgr                                          DEBUG updateTagInfo: Retrieved TagInfo meta data from detStore. size 1
TagInfoMgr                                          DEBUG fillTagInfo: 
TagInfoMgr                                          DEBUG fillTagInfo: - reading Tags from infile IOV metadata
TagInfoMgr                                          DEBUG fillTagInfo: Did NOT add tag - on remove list: name/tag: /LAR/Identifier/CalibIdMap LARIdentifierCalibIdMap-012
TagInfoMgr                                          DEBUG fillTagInfo: Added value/tag to TagInfo as input tag /LAR/Identifier/CalibIdMap LARIdentifierCalibIdMap-012
TagInfoMgr                                          DEBUG fillTagInfo: Did NOT add tag - on remove list: name/tag: /LAR/Identifier/FebRodMap LARIdentifierFebRodMap-005
TagInfoMgr                                          DEBUG fillTagInfo: Added value/tag to TagInfo as input tag /LAR/Identifier/FebRodMap LARIdentifierFebRodMap-005
TagInfoMgr                                          DEBUG fillTagInfo: Did NOT add tag - on remove list: name/tag: /LAR/Identifier/OnOffIdMap LARIdentifierOnOffIdMap-012
TagInfoMgr                                          DEBUG fillTagInfo: Added value/tag to TagInfo as input tag /LAR/Identifier/OnOffIdMap LARIdentifierOnOffIdMap-012
TagInfoMgr                                          DEBUG fillTagInfo: Added name/tag to TagInfo IOVDbGlobalTag OFLCOND-SDR-BS14T-IBL-06
TagInfoMgr                                          DEBUG fillTagInfo: Added value/tag to TagInfo as input tag IOVDbGlobalTag OFLCOND-SDR-BS14T-IBL-06
TagInfoMgr                                          DEBUG fillTagInfo: print out tags before adding extra tags
TagInfoMgr                                          DEBUG TagInfo tag: 
TagInfoMgr                                          DEBUG fillTagInfo: Adding extra value/tag pair: /LAR/Identifier/CalibIdMap LARIdentifierCalibIdMap-012
TagInfoMgr                                          DEBUG fillTagInfo: Adding extra value/tag pair: /LAR/Identifier/FebRodMap LARIdentifierFebRodMap-005
TagInfoMgr                                          DEBUG fillTagInfo: Adding extra value/tag pair: /LAR/Identifier/OnOffIdMap LARIdentifierOnOffIdMap-012
TagInfoMgr                                          DEBUG fillTagInfo: Adding extra value/tag pair: IOVDbGlobalTag OFLCOND-SDR-BS14T-IBL-06
TagInfoMgr                                          DEBUG fillTagInfo: Adding extra value/tag pair: TagA1 A1
TagInfoMgr                                          DEBUG fillTagInfo: Adding extra value/tag pair: TagB1 B1
TagInfoMgr                                          DEBUG fillTagInfo: Adding extra value/tag pair: TagC1 C1
TagInfoMgr                                          DEBUG fillTagInfo: Adding extra value/tag pair: TagD1 D1
TagInfoMgr                                          DEBUG fillTagInfo: print out tags
TagInfoMgr                                          DEBUG TagInfo tag: 
TagInfoMgr                                          DEBUG updateTagInfo: Filled TagInfo from file meta data 
TagInfoMgr                                          DEBUG entering fillMetaData
TagInfoMgr                                          DEBUG fillMetaData: Adding value/tag pairs to file meta data: 
TagInfoMgr                                          DEBUG /LAR/Identifier/CalibIdMap LARIdentifierCalibIdMap-012
TagInfoMgr                                          DEBUG /LAR/Identifier/FebRodMap LARIdentifierFebRodMap-005
TagInfoMgr                                          DEBUG /LAR/Identifier/OnOffIdMap LARIdentifierOnOffIdMap-012
TagInfoMgr                                          DEBUG IOVDbGlobalTag OFLCOND-SDR-BS14T-IBL-06
TagInfoMgr                                          DEBUG TagA1 A1
TagInfoMgr                                          DEBUG TagB1 B1
TagInfoMgr                                          DEBUG TagC1 C1
TagInfoMgr                                          DEBUG TagD1 D1
TagInfoMgr                                          DEBUG fillMetaData: run number is in previous IOVRange: 2 {[1,0] - [3,0]}
TagInfoMgr                                          DEBUG fillMetaData: start, stop: [2,0] [3,0]
TagInfoMgr                                          DEBUG updateTagInfo: Wrote TagInfo to MetaDataStore 
TagInfoMgr                                          DEBUG notifyListeners  (1 registered)
EventInfoWriter                                     DEBUG EventInfoWriter::execute()
EventInfoWriter                                     DEBUG Event ID: [2,1:85] 
EventInfoWriter                                     DEBUG Tags from TagInfoMgr:
EventInfoWriter                                     DEBUG TagInfo tag: 
EventInfoWriter                                     DEBUG Current tags: 
EventInfoWriter                                     DEBUG     /LAR/Identifier/CalibIdMap LARIdentifierCalibIdMap-012
EventInfoWriter                                     DEBUG     /LAR/Identifier/FebRodMap LARIdentifierFebRodMap-005
EventInfoWriter                                     DEBUG     /LAR/Identifier/OnOffIdMap LARIdentifierOnOffIdMap-012
EventInfoWriter                                     DEBUG     IOVDbGlobalTag OFLCOND-SDR-BS14T-IBL-06
EventInfoWriter                                     DEBUG     TagA1 A1
EventInfoWriter                                     DEBUG     TagB1 B1
EventInfoWriter                                     DEBUG     TagC1 C1
EventInfoWriter                                     DEBUG     TagD1 D1
EventInfoWriter                                     DEBUG Input tags: 
EventInfoWriter                                     DEBUG     /LAR/Identifier/CalibIdMap LARIdentifierCalibIdMap-012
EventInfoWriter                                     DEBUG     /LAR/Identifier/FebRodMap LARIdentifierFebRodMap-005
EventInfoWriter                                     DEBUG     /LAR/Identifier/OnOffIdMap LARIdentifierOnOffIdMap-012
EventInfoWriter                                     DEBUG     IOVDbGlobalTag OFLCOND-SDR-BS14T-IBL-06
EventInfoWriter                                     DEBUG EventInfoWriter::execute()
EventInfoWriter                                     DEBUG Event ID: [2,2:90] 
EventInfoWriter                                     DEBUG Tags from TagInfoMgr:
EventInfoWriter                                     DEBUG TagInfo tag: 
EventInfoWriter                                     DEBUG Current tags: 
EventInfoWriter                                     DEBUG     /LAR/Identifier/CalibIdMap LARIdentifierCalibIdMap-012
EventInfoWriter                                     DEBUG     /LAR/Identifier/FebRodMap LARIdentifierFebRodMap-005
EventInfoWriter                                     DEBUG     /LAR/Identifier/OnOffIdMap LARIdentifierOnOffIdMap-012
EventInfoWriter                                     DEBUG     IOVDbGlobalTag OFLCOND-SDR-BS14T-IBL-06
EventInfoWriter                                     DEBUG     TagA1 A1
EventInfoWriter                                     DEBUG     TagB1 B1
EventInfoWriter                                     DEBUG     TagC1 C1
EventInfoWriter                                     DEBUG     TagD1 D1
EventInfoWriter                                     DEBUG Input tags: 
EventInfoWriter                                     DEBUG     /LAR/Identifier/CalibIdMap LARIdentifierCalibIdMap-012
EventInfoWriter                                     DEBUG     /LAR/Identifier/FebRodMap LARIdentifierFebRodMap-005
EventInfoWriter                                     DEBUG     /LAR/Identifier/OnOffIdMap LARIdentifierOnOffIdMap-012
EventInfoWriter                                     DEBUG     IOVDbGlobalTag OFLCOND-SDR-BS14T-IBL-06
EventInfoWriter                                     DEBUG EventInfoWriter::execute()
EventInfoWriter                                     DEBUG Event ID: [2,3:95] 
EventInfoWriter                                     DEBUG Tags from TagInfoMgr:
EventInfoWriter                                     DEBUG TagInfo tag: 
EventInfoWriter                                     DEBUG Current tags: 
EventInfoWriter                                     DEBUG     /LAR/Identifier/CalibIdMap LARIdentifierCalibIdMap-012
EventInfoWriter                                     DEBUG     /LAR/Identifier/FebRodMap LARIdentifierFebRodMap-005
EventInfoWriter                                     DEBUG     /LAR/Identifier/OnOffIdMap LARIdentifierOnOffIdMap-012
EventInfoWriter                                     DEBUG     IOVDbGlobalTag OFLCOND-SDR-BS14T-IBL-06
EventInfoWriter                                     DEBUG     TagA1 A1
EventInfoWriter                                     DEBUG     TagB1 B1
EventInfoWriter                                     DEBUG     TagC1 C1
EventInfoWriter                                     DEBUG     TagD1 D1
EventInfoWriter                                     DEBUG Input tags: 
EventInfoWriter                                     DEBUG     /LAR/Identifier/CalibIdMap LARIdentifierCalibIdMap-012
EventInfoWriter                                     DEBUG     /LAR/Identifier/FebRodMap LARIdentifierFebRodMap-005
EventInfoWriter                                     DEBUG     /LAR/Identifier/OnOffIdMap LARIdentifierOnOffIdMap-012
EventInfoWriter                                     DEBUG     IOVDbGlobalTag OFLCOND-SDR-BS14T-IBL-06
EventInfoWriter                                     DEBUG EventInfoWriter::execute()
EventInfoWriter                                     DEBUG Event ID: [2,4:100] 
EventInfoWriter                                     DEBUG Tags from TagInfoMgr:
EventInfoWriter                                     DEBUG TagInfo tag: 
EventInfoWriter                                     DEBUG Current tags: 
EventInfoWriter                                     DEBUG     /LAR/Identifier/CalibIdMap LARIdentifierCalibIdMap-012
EventInfoWriter                                     DEBUG     /LAR/Identifier/FebRodMap LARIdentifierFebRodMap-005
EventInfoWriter                                     DEBUG     /LAR/Identifier/OnOffIdMap LARIdentifierOnOffIdMap-012
EventInfoWriter                                     DEBUG     IOVDbGlobalTag OFLCOND-SDR-BS14T-IBL-06
EventInfoWriter                                     DEBUG     TagA1 A1
EventInfoWriter                                     DEBUG     TagB1 B1
EventInfoWriter                                     DEBUG     TagC1 C1
EventInfoWriter                                     DEBUG     TagD1 D1
EventInfoWriter                                     DEBUG Input tags: 
EventInfoWriter                                     DEBUG     /LAR/Identifier/CalibIdMap LARIdentifierCalibIdMap-012
EventInfoWriter                                     DEBUG     /LAR/Identifier/FebRodMap LARIdentifierFebRodMap-005
EventInfoWriter                                     DEBUG     /LAR/Identifier/OnOffIdMap LARIdentifierOnOffIdMap-012
EventInfoWriter                                     DEBUG     IOVDbGlobalTag OFLCOND-SDR-BS14T-IBL-06
EventInfoWriter                                     DEBUG EventInfoWriter::execute()
EventInfoWriter                                     DEBUG Event ID: [2,5:105] 
EventInfoWriter                                     DEBUG Tags from TagInfoMgr:
EventInfoWriter                                     DEBUG TagInfo tag: 
EventInfoWriter                                     DEBUG Current tags: 
EventInfoWriter                                     DEBUG     /LAR/Identifier/CalibIdMap LARIdentifierCalibIdMap-012
EventInfoWriter                                     DEBUG     /LAR/Identifier/FebRodMap LARIdentifierFebRodMap-005
EventInfoWriter                                     DEBUG     /LAR/Identifier/OnOffIdMap LARIdentifierOnOffIdMap-012
EventInfoWriter                                     DEBUG     IOVDbGlobalTag OFLCOND-SDR-BS14T-IBL-06
EventInfoWriter                                     DEBUG     TagA1 A1
EventInfoWriter                                     DEBUG     TagB1 B1
EventInfoWriter                                     DEBUG     TagC1 C1
EventInfoWriter                                     DEBUG     TagD1 D1
EventInfoWriter                                     DEBUG Input tags: 
EventInfoWriter                                     DEBUG     /LAR/Identifier/CalibIdMap LARIdentifierCalibIdMap-012
EventInfoWriter                                     DEBUG     /LAR/Identifier/FebRodMap LARIdentifierFebRodMap-005
EventInfoWriter                                     DEBUG     /LAR/Identifier/OnOffIdMap LARIdentifierOnOffIdMap-012
EventInfoWriter                                     DEBUG     IOVDbGlobalTag OFLCOND-SDR-BS14T-IBL-06
EventInfoWriter                                     DEBUG EventInfoWriter::execute()
EventInfoWriter                                     DEBUG Event ID: [2,6:110] 
EventInfoWriter                                     DEBUG Tags from TagInfoMgr:
EventInfoWriter                                     DEBUG TagInfo tag: 
EventInfoWriter                                     DEBUG Current tags: 
EventInfoWriter                                     DEBUG     /LAR/Identifier/CalibIdMap LARIdentifierCalibIdMap-012
EventInfoWriter                                     DEBUG     /LAR/Identifier/FebRodMap LARIdentifierFebRodMap-005
EventInfoWriter                                     DEBUG     /LAR/Identifier/OnOffIdMap LARIdentifierOnOffIdMap-012
EventInfoWriter                                     DEBUG     IOVDbGlobalTag OFLCOND-SDR-BS14T-IBL-06
EventInfoWriter                                     DEBUG     TagA1 A1
EventInfoWriter                                     DEBUG     TagB1 B1
EventInfoWriter                                     DEBUG     TagC1 C1
EventInfoWriter                                     DEBUG     TagD1 D1
EventInfoWriter                                     DEBUG Input tags: 
EventInfoWriter                                     DEBUG     /LAR/Identifier/CalibIdMap LARIdentifierCalibIdMap-012
EventInfoWriter                                     DEBUG     /LAR/Identifier/FebRodMap LARIdentifierFebRodMap-005
EventInfoWriter                                     DEBUG     /LAR/Identifier/OnOffIdMap LARIdentifierOnOffIdMap-012
EventInfoWriter                                     DEBUG     IOVDbGlobalTag OFLCOND-SDR-BS14T-IBL-06
EventInfoWriter                                     DEBUG EventInfoWriter::execute()
EventInfoWriter                                     DEBUG Event ID: [2,7:115] 
EventInfoWriter                                     DEBUG Tags from TagInfoMgr:
EventInfoWriter                                     DEBUG TagInfo tag: 
EventInfoWriter                                     DEBUG Current tags: 
EventInfoWriter                                     DEBUG     /LAR/Identifier/CalibIdMap LARIdentifierCalibIdMap-012
EventInfoWriter                                     DEBUG     /LAR/Identifier/FebRodMap LARIdentifierFebRodMap-005
EventInfoWriter                                     DEBUG     /LAR/Identifier/OnOffIdMap LARIdentifierOnOffIdMap-012
EventInfoWriter                                     DEBUG     IOVDbGlobalTag OFLCOND-SDR-BS14T-IBL-06
EventInfoWriter                                     DEBUG     TagA1 A1
EventInfoWriter                                     DEBUG     TagB1 B1
EventInfoWriter                                     DEBUG     TagC1 C1
EventInfoWriter                                     DEBUG     TagD1 D1
EventInfoWriter                                     DEBUG Input tags: 
EventInfoWriter                                     DEBUG     /LAR/Identifier/CalibIdMap LARIdentifierCalibIdMap-012
EventInfoWriter                                     DEBUG     /LAR/Identifier/FebRodMap LARIdentifierFebRodMap-005
EventInfoWriter                                     DEBUG     /LAR/Identifier/OnOffIdMap LARIdentifierOnOffIdMap-012
EventInfoWriter                                     DEBUG     IOVDbGlobalTag OFLCOND-SDR-BS14T-IBL-06
EventInfoWriter                                     DEBUG EventInfoWriter::execute()
EventInfoWriter                                     DEBUG Event ID: [2,8:120] 
EventInfoWriter                                     DEBUG Tags from TagInfoMgr:
EventInfoWriter                                     DEBUG TagInfo tag: 
EventInfoWriter                                     DEBUG Current tags: 
EventInfoWriter                                     DEBUG     /LAR/Identifier/CalibIdMap LARIdentifierCalibIdMap-012
EventInfoWriter                                     DEBUG     /LAR/Identifier/FebRodMap LARIdentifierFebRodMap-005
EventInfoWriter                                     DEBUG     /LAR/Identifier/OnOffIdMap LARIdentifierOnOffIdMap-012
EventInfoWriter                                     DEBUG     IOVDbGlobalTag OFLCOND-SDR-BS14T-IBL-06
EventInfoWriter                                     DEBUG     TagA1 A1
EventInfoWriter                                     DEBUG     TagB1 B1
EventInfoWriter                                     DEBUG     TagC1 C1
EventInfoWriter                                     DEBUG     TagD1 D1
EventInfoWriter                                     DEBUG Input tags: 
EventInfoWriter                                     DEBUG     /LAR/Identifier/CalibIdMap LARIdentifierCalibIdMap-012
EventInfoWriter                                     DEBUG     /LAR/Identifier/FebRodMap LARIdentifierFebRodMap-005
EventInfoWriter                                     DEBUG     /LAR/Identifier/OnOffIdMap LARIdentifierOnOffIdMap-012
EventInfoWriter                                     DEBUG     IOVDbGlobalTag OFLCOND-SDR-BS14T-IBL-06
EventInfoWriter                                     DEBUG EventInfoWriter::finalize()
TagInfoMgr                                          DEBUG finalize()
